24

3 6
6
t 0 4 s
h 2 3 n
f 2 4 e
t 1 4 w
t 2 3 e
r 1 1 e
952 55

1 2
9
r 0 0 e
h 0 0 e
h 0 1 s
f 0 1 e
h 0 1 n
h 0 1 s
f 0 0 n
h 0 0 w
t 0 1 e
662 178

7 2
9
f 1 1 s
f 1 0 n
h 3 0 n
f 0 1 n
r 1 1 w
t 5 0 e
f 6 0 e
r 6 1 w
h 5 1 e
993 125

1 5
5
h 0 1 e
t 0 4 e
r 0 0 s
r 0 0 e
h 0 1 w
875 148

1 6
4
t 0 5 e
r 0 0 n
f 0 5 w
t 0 0 e
956 76

2 5
5
t 0 0 n
h 1 3 e
t 0 0 w
r 0 0 s
h 1 2 w
186 130

3 7
9
t 1 2 s
r 2 1 e
r 0 0 n
h 0 0 n
r 0 5 s
t 1 1 s
f 0 2 e
f 0 5 e
h 2 3 n
554 61

5 8
9
h 2 4 w
t 3 7 s
f 0 4 n
h 1 7 w
f 0 2 w
r 0 6 s
h 3 0 w
h 3 2 n
f 3 0 n
679 130

4 6
8
h 3 4 n
r 2 2 s
f 0 3 s
h 2 0 w
h 0 4 s
t 1 2 w
h 2 2 n
h 2 5 n
726 110

5 1
6
r 3 0 w
h 0 0 n
t 4 0 e
t 3 0 e
h 2 0 s
r 3 0 n
948 196

2 8
4
t 1 0 e
r 0 7 e
h 0 3 e
h 0 0 s
732 101

9 7
1
t 1 6 s
215 58

2 9
4
h 1 1 n
f 0 5 s
r 0 2 w
h 0 8 s
395 101

8 5
3
r 1 4 n
h 3 4 s
f 3 0 s
446 189

10 9
8
r 0 5 s
h 4 5 w
t 1 2 n
h 1 5 n
f 4 7 n
r 4 6 n
h 8 7 s
f 6 4 s
663 101

6 3
8
r 4 2 e
h 2 2 w
f 1 2 w
t 0 0 s
h 0 1 e
r 2 0 n
t 5 2 n
t 3 2 w
829 61

2 6
2
f 1 5 s
f 1 0 s
16 102

6 6
7
h 3 4 s
t 2 1 s
h 1 3 e
f 4 2 n
h 0 1 n
f 2 0 n
t 1 4 n
484 107

10 9
7
r 9 8 n
t 6 3 e
r 3 8 n
f 1 0 w
h 8 4 s
t 5 8 e
f 8 6 w
928 171

1 4
6
t 0 2 s
f 0 0 e
h 0 3 n
r 0 0 n
h 0 2 n
h 0 0 w
129 63

1 4
7
r 0 2 w
t 0 0 s
r 0 3 e
t 0 0 e
h 0 0 n
r 0 1 e
t 0 3 s
607 56

8 8
5
t 6 1 e
r 4 0 e
r 6 1 w
r 1 2 s
f 0 1 w
341 128

9 3
5
t 5 0 e
f 5 2 e
r 0 0 n
t 8 1 e
h 3 2 s
40 193

5 10
5
r 3 9 n
t 0 1 s
t 3 9 w
f 0 2 w
t 0 2 w
957 63
