23

9 6
6
f 7 2 s
r 7 0 n
f 8 0 s
h 1 0 s
t 2 0 w
r 2 4 e
12 5

10 9
10
h 8 8 s
h 3 7 e
r 8 5 s
t 9 0 w
h 0 5 e
h 8 0 s
f 9 2 w
r 5 0 n
t 9 1 e
t 2 4 w
47 2

6 10
10
t 3 6 e
r 2 5 s
t 3 8 e
r 4 3 e
f 3 6 e
h 1 1 n
f 1 6 e
h 0 9 e
r 2 6 s
r 1 9 s
39 6

6 10
9
r 2 9 e
t 1 4 n
t 3 5 e
r 1 9 s
r 2 9 n
t 3 3 n
f 4 3 s
h 4 9 s
t 3 4 e
22 2

7 5
9
h 6 4 n
h 0 0 w
f 6 0 e
r 1 3 e
t 3 1 n
r 6 0 s
f 0 2 s
r 4 1 w
f 3 2 n
19 7

8 5
5
f 2 2 e
r 3 1 s
r 1 1 n
r 2 2 e
f 4 3 e
2 4

7 7
9
t 0 2 n
h 1 5 n
f 5 4 n
f 2 2 e
t 0 3 n
f 3 4 s
h 6 1 n
h 5 2 e
f 3 1 e
17 1

5 5
10
f 2 3 s
t 0 4 e
f 1 1 e
r 3 0 e
h 4 4 s
r 2 4 e
t 3 4 n
r 0 0 w
h 0 4 w
h 1 1 n
42 5

6 7
9
h 4 3 s
t 1 0 w
t 5 1 w
h 1 2 w
f 5 0 n
f 1 6 n
t 2 2 s
f 3 4 s
h 0 1 s
37 7

5 6
5
r 0 3 e
r 0 5 s
t 1 1 n
t 4 1 n
h 3 3 s
8 5

6 10
7
h 1 2 w
f 0 6 n
t 5 1 n
t 5 5 s
t 5 4 s
r 2 4 n
t 0 6 w
38 5

6 5
9
t 5 1 w
f 2 0 n
r 5 2 n
h 5 3 e
t 0 3 e
t 5 1 e
r 1 0 n
h 4 0 n
h 5 0 s
7 5

8 8
6
r 3 0 s
f 0 4 n
r 1 1 n
f 5 1 e
t 1 5 n
f 3 4 w
25 9

10 6
8
h 3 2 e
t 6 2 e
t 9 3 e
h 8 2 w
h 4 5 s
t 4 3 s
t 7 4 n
h 4 1 e
14 7

7 6
8
r 0 1 e
f 5 2 n
f 6 4 s
h 4 4 e
f 1 5 e
f 5 1 n
f 6 0 s
t 5 2 e
6 8

5 6
5
t 0 5 w
h 3 5 w
f 4 5 n
f 2 3 w
r 0 5 e
38 8

6 7
5
t 1 4 e
h 3 6 s
t 0 4 s
r 2 5 e
f 0 0 s
39 9

8 5
10
h 3 0 s
f 6 3 e
r 1 1 n
r 3 0 n
r 4 1 n
f 1 4 e
t 5 1 w
t 3 1 w
f 4 4 n
f 1 2 n
12 10

9 6
9
t 1 2 w
h 1 2 s
f 6 3 n
f 5 0 s
t 6 5 w
t 7 3 w
f 8 1 w
f 5 3 s
h 3 0 n
25 2

9 7
7
r 0 3 s
h 5 3 w
f 1 5 w
r 4 6 e
t 1 0 s
h 3 6 w
f 8 6 n
9 2

7 8
6
t 2 7 e
f 1 1 e
r 1 7 n
t 6 4 e
t 2 4 w
h 1 2 s
18 9

6 9
10
t 3 0 w
f 3 5 s
h 2 3 s
h 4 3 n
r 4 3 n
t 3 6 s
r 0 5 n
f 4 0 w
f 3 2 e
r 3 0 s
24 5

5 7
5
r 1 5 w
t 4 5 s
r 4 3 s
f 0 2 s
r 1 6 w
10 3
