22

4 14
9
h 3 1 e
f 0 5 w
f 2 4 w
r 3 4 n
f 1 8 w
f 3 5 s
h 2 6 n
h 2 0 w
r 2 4 e
3 4

19 17
12
h 1 0 s
t 6 6 s
t 6 15 w
h 9 1 w
f 13 10 w
h 2 5 s
h 7 4 w
f 0 2 n
r 12 12 n
h 9 0 e
h 6 10 w
h 0 8 n
7 4

10 17
5
h 8 4 e
f 4 11 n
t 3 15 w
f 5 8 w
r 4 1 s
2 9

11 18
12
f 0 13 s
t 1 16 w
t 4 9 w
t 7 8 s
h 5 1 s
f 8 15 w
h 8 5 n
t 3 9 w
r 3 4 w
r 10 6 n
t 6 6 w
r 2 10 n
10 9

4 20
9
r 1 2 n
f 0 15 n
h 2 15 w
f 0 3 w
f 3 8 n
r 2 19 e
t 0 13 w
r 3 18 s
r 1 14 e
4 8

13 5
10
h 8 2 w
h 7 2 w
f 1 0 s
f 5 1 w
r 12 2 s
r 9 4 n
h 2 3 w
t 8 0 e
f 8 3 w
t 3 4 e
7 4

7 9
5
t 0 0 n
r 4 8 s
r 2 5 s
t 3 2 s
h 0 2 e
2 9

20 7
11
t 17 3 e
f 9 5 s
r 11 5 w
f 1 0 s
h 8 6 w
h 11 2 n
f 11 5 n
f 14 0 e
t 3 0 s
h 2 2 w
r 17 5 s
2 8

14 15
10
t 0 12 w
t 4 2 n
t 0 6 e
f 0 8 s
h 5 5 w
f 4 2 e
t 6 14 n
r 7 10 n
r 13 8 e
h 9 14 n
7 5

8 6
11
f 6 4 e
t 3 5 e
r 1 0 n
h 6 3 e
f 1 4 w
f 7 2 w
f 0 3 n
r 2 5 s
f 7 3 w
r 5 1 s
f 5 0 w
10 2

7 9
5
t 4 6 w
h 0 6 e
h 6 6 w
h 0 4 n
f 4 5 n
1 7

7 9
7
h 0 1 n
h 6 1 s
t 6 0 w
t 2 7 e
r 2 3 w
f 2 4 s
f 2 3 s
4 3

12 7
3
t 11 3 e
t 1 4 s
f 11 3 e
4 8

12 8
9
t 1 4 w
h 1 4 w
f 0 7 w
r 11 0 s
r 10 2 e
h 6 0 w
f 9 3 e
r 3 2 e
h 4 3 n
5 2

10 11
8
f 0 2 s
f 9 3 s
t 3 5 s
t 0 9 n
t 9 8 e
f 6 8 w
f 9 1 n
t 3 3 s
6 5

2 2
6
f 0 1 n
r 1 0 e
h 1 0 w
r 0 0 w
h 0 1 w
t 0 1 s
8 9

7 14
10
r 4 5 w
r 3 9 e
r 0 2 w
f 6 0 n
t 6 1 w
t 3 4 n
t 4 11 s
t 1 3 w
f 5 11 n
r 2 11 s
9 1

10 5
11
h 2 4 w
t 9 3 w
h 1 3 w
t 8 2 e
r 4 0 s
f 0 0 s
f 7 2 e
t 2 2 n
t 9 3 w
t 3 0 s
f 0 3 n
3 1

11 8
11
f 2 5 s
t 0 7 e
r 2 7 n
r 8 5 w
h 3 7 n
r 8 2 e
t 4 1 s
t 1 3 n
h 7 5 n
h 2 6 n
h 9 3 e
7 4

10 19
5
h 4 6 e
f 1 4 e
f 6 13 s
r 9 10 n
h 4 12 n
5 8

10 16
6
f 4 2 e
r 4 6 s
h 8 7 e
t 2 10 e
h 2 1 s
h 0 2 s
2 9

19 19
4
t 18 9 e
h 8 13 n
t 15 4 s
r 18 11 w
3 8
