25

10 7
8
f 8 1 s
r 3 3 s
t 8 2 e
h 6 3 s
t 2 3 n
t 0 2 e
t 2 6 s
r 9 5 e
247 80

10 8
4
h 2 2 e
f 6 0 w
t 7 6 w
f 5 5 n
211 174

4 5
8
r 3 2 n
f 1 1 w
t 3 3 w
t 3 2 n
h 1 0 n
r 0 2 n
f 1 2 e
h 3 2 n
388 161

10 4
6
r 8 3 n
f 9 0 e
r 1 3 n
r 1 0 s
h 6 2 n
t 5 2 e
223 197

9 6
4
h 0 1 w
t 3 1 w
h 0 4 w
r 8 5 n
10 132

7 8
4
h 0 7 w
f 3 6 w
f 4 2 s
t 0 6 n
208 69

7 10
3
r 1 5 e
t 1 2 s
h 0 0 e
189 191

6 7
9
t 5 4 e
t 2 1 e
t 1 5 n
r 1 5 n
t 4 1 w
f 4 5 w
h 0 2 n
f 1 3 e
h 4 0 s
264 131

9 5
7
f 6 2 s
h 8 2 e
f 5 1 e
t 2 4 s
t 1 3 n
t 6 2 s
r 1 2 e
6 24

5 8
4
r 0 5 w
r 2 7 w
h 3 3 n
h 1 5 w
276 188

8 9
8
f 7 5 e
h 4 4 n
f 3 7 e
h 0 2 n
h 6 7 n
f 3 8 w
f 1 5 s
t 7 2 e
306 121

8 4
3
f 7 1 w
h 7 0 e
h 6 0 e
108 8

7 10
8
f 5 0 w
f 4 5 e
h 6 0 w
h 4 7 e
t 2 9 e
r 3 4 w
f 5 1 e
h 3 9 s
125 69

8 10
6
h 3 4 n
t 4 7 w
r 7 5 e
h 2 0 w
f 1 6 e
h 2 3 n
242 158

4 4
6
t 2 2 n
h 1 3 n
f 0 2 n
r 2 3 e
h 0 0 n
h 0 1 s
306 129

6 8
3
f 3 6 e
f 5 5 s
r 4 3 s
53 193

8 8
6
r 0 6 e
f 2 4 w
h 1 5 e
r 3 6 s
h 4 1 n
f 0 2 e
126 53

10 10
8
f 8 5 n
f 0 2 w
t 2 4 n
h 9 1 w
r 2 3 w
r 8 5 s
t 2 6 n
t 4 2 n
59 136

7 5
8
t 6 3 n
f 2 4 s
r 6 0 e
t 3 4 s
t 1 0 w
t 2 0 s
h 3 2 e
t 2 3 w
268 84

8 5
3
t 5 4 e
h 2 1 w
r 3 4 s
317 80

4 5
7
f 3 4 w
h 2 0 e
t 3 4 e
t 1 4 w
h 0 0 w
r 3 1 s
f 1 0 s
132 134

8 4
3
h 4 1 n
h 5 3 e
h 1 2 w
156 56

5 10
5
h 3 5 s
t 0 3 w
t 3 3 n
h 3 7 w
f 4 1 e
209 13

4 9
3
r 1 8 n
t 0 3 n
h 3 3 n
328 41

5 6
10
h 4 2 w
r 0 0 w
f 2 5 n
f 1 1 n
r 3 3 w
t 4 4 w
t 1 1 w
f 0 0 e
f 3 2 s
f 1 1 e
314 95
