*** Darwin 2x2 ***
Turn = 0.
  01
0 ..
1 f.

Turn = 5.
  01
0 ..
1 f.

Turn = 10.
  01
0 ..
1 f.

Turn = 15.
  01
0 ..
1 f.

Turn = 20.
  01
0 ..
1 f.

*** Darwin 3x4 ***
Turn = 0.
  0123
0 r...
1 ....
2 ...r

Turn = 5.
  0123
0 ...r
1 ....
2 .r..

Turn = 10.
  0123
0 r...
1 ...r
2 ....

Turn = 15.
  0123
0 .r..
1 ....
2 ...r

Turn = 20.
  0123
0 ....
1 r...
2 r...

*** Darwin 4x3 ***
Turn = 0.
  012
0 ...
1 ...
2 .r.
3 ..r

Turn = 5.
  012
0 ..r
1 ...
2 ...
3 r..

Turn = 10.
  012
0 r..
1 ...
2 ...
3 ..r

Turn = 15.
  012
0 ...
1 r..
2 ...
3 .r.

Turn = 20.
  012
0 ..r
1 ...
2 ..r
3 ...

*** Darwin 3x4 ***
Turn = 0.
  0123
0 .t..
1 ....
2 ..t.

Turn = 5.
  0123
0 .t..
1 ....
2 ..t.

Turn = 10.
  0123
0 .t..
1 ....
2 ..t.

Turn = 15.
  0123
0 .t..
1 ....
2 ..t.

Turn = 20.
  0123
0 .t..
1 ....
2 ..t.

*** Darwin 4x3 ***
Turn = 0.
  012
0 ...
1 .r.
2 .t.
3 ..t

Turn = 5.
  012
0 ...
1 ...
2 .tt
3 ..t

Turn = 10.
  012
0 ...
1 ...
2 .tt
3 ..t

Turn = 15.
  012
0 ...
1 ...
2 .tt
3 ..t

Turn = 20.
  012
0 ...
1 ...
2 .tt
3 ..t

*** Darwin 3x3 ***
Turn = 0.
  012
0 ...
1 r..
2 r.h

Turn = 5.
  012
0 .r.
1 .r.
2 ..h

Turn = 10.
  012
0 ..r
1 ..r
2 ..r

Turn = 15.
  012
0 .r.
1 r..
2 .r.

Turn = 20.
  012
0 ...
1 ..r
2 .rr

*** Darwin 6x6 ***
Turn = 0.
  012345
0 ......
1 ......
2 ...fr.
3 .....f
4 .f..f.
5 ...f..

Turn = 5.
  012345
0 .....r
1 ......
2 ...f..
3 .....f
4 .f..f.
5 ...f..

Turn = 10.
  012345
0 ......
1 ......
2 ...f.r
3 ....r.
4 .f..f.
5 ...f..

Turn = 15.
  012345
0 ......
1 ......
2 ...f..
3 r.....
4 .f..f.
5 ...fr.

Turn = 20.
  012345
0 r.....
1 ...r..
2 ...r..
3 ......
4 .f..f.
5 r.....

*** Darwin 4x4 ***
Turn = 0.
  0123
0 ...t
1 ....
2 .r..
3 .t.r

Turn = 5.
  0123
0 ...t
1 ....
2 ..r.
3 .tr.

Turn = 10.
  0123
0 rr.t
1 ....
2 ....
3 r...

Turn = 15.
  0123
0 ..rr
1 r...
2 ....
3 .r..

Turn = 20.
  0123
0 r...
1 ....
2 ...r
3 r..r

*** Darwin 5x5 ***
Turn = 0.
  01234
0 ...r.
1 .....
2 ..t..
3 ..rt.
4 ..hh.

Turn = 5.
  01234
0 ...r.
1 .r...
2 ...t.
3 ...t.
4 ..ht.

Turn = 10.
  01234
0 .r...
1 .....
2 ...t.
3 ...tr
4 ..tt.

Turn = 15.
  01234
0 .....
1 ....r
2 ...t.
3 ...tt
4 ..tt.

Turn = 20.
  01234
0 .....
1 .....
2 ...tt
3 ...tt
4 ..tt.

*** Darwin 5x5 ***
Turn = 0.
  01234
0 .r..h
1 ..h..
2 .....
3 r..t.
4 .f...

Turn = 5.
  01234
0 .....
1 h.r..
2 ...r.
3 ..tt.
4 .f...

Turn = 10.
  01234
0 .....
1 h....
2 .....
3 ..r..
4 .frrr

Turn = 15.
  01234
0 ....r
1 h..r.
2 .....
3 rr...
4 r....

Turn = 20.
  01234
0 .r...
1 r.r..
2 r....
3 r...r
4 .....

*** Darwin 10x1 ***
Turn = 0.
  0
0 .
1 .
2 .
3 r
4 h
5 h
6 h
7 h
8 .
9 t

Turn = 4.
  0
0 .
1 .
2 .
3 r
4 r
5 r
6 r
7 r
8 .
9 t

Turn = 8.
  0
0 r
1 .
2 .
3 r
4 r
5 r
6 .
7 r
8 .
9 t

Turn = 12.
  0
0 r
1 r
2 r
3 r
4 .
5 .
6 .
7 .
8 t
9 t

Turn = 16.
  0
0 r
1 r
2 r
3 r
4 .
5 .
6 .
7 .
8 t
9 t

Turn = 20.
  0
0 r
1 r
2 .
3 .
4 r
5 .
6 .
7 t
8 t
9 t

*** Darwin 6x5 ***
Turn = 0.
  01234
0 .....
1 .r...
2 .....
3 .....
4 ..tr.
5 rt.t.

Turn = 5.
  01234
0 ...r.
1 r....
2 .....
3 .....
4 .tt..
5 .t.t.

Turn = 10.
  01234
0 ...r.
1 .....
2 .....
3 ....r
4 .tt..
5 .t.t.

Turn = 15.
  01234
0 .....
1 .....
2 .....
3 ....r
4 .tt..
5 .t.tt

Turn = 20.
  01234
0 .....
1 .....
2 .....
3 .....
4 .tt.t
5 .t.tt

*** Darwin 6x6 ***
Turn = 0.
  012345
0 ......
1 ...f..
2 ...hf.
3 ..t...
4 .rf...
5 hr....

Turn = 5.
  012345
0 .r....
1 r..f..
2 ....f.
3 rrt...
4 ..t...
5 ......

Turn = 10.
  012345
0 r..r.r
1 r..f..
2 ....f.
3 ..t...
4 ..t...
5 ......

Turn = 15.
  012345
0 ......
1 r..fr.
2 ...r..
3 ..t...
4 r.t..r
5 ......

Turn = 20.
  012345
0 ......
1 r..f..
2 ......
3 ..t...
4 ..t..r
5 r.rr..

*** Darwin 5x4 ***
Turn = 0.
  0123
0 ....
1 ...h
2 ...t
3 r.rt
4 ..hf

Turn = 4.
  0123
0 ...h
1 ....
2 ..r.
3 ..rr
4 .rrr

Turn = 8.
  0123
0 .r.h
1 r..r
2 ....
3 rr..
4 r...

Turn = 12.
  0123
0 r..r
1 rr..
2 .r..
3 rr..
4 ....

Turn = 16.
  0123
0 .rr.
1 r..r
2 r...
3 ...r
4 r...

Turn = 20.
  0123
0 .rr.
1 ..r.
2 ....
3 ..rr
4 r..r

*** Darwin 7x7 ***
Turn = 0.
  0123456
0 .......
1 ..t....
2 ..r....
3 .r...hf
4 ...t.hr
5 .....h.
6 ...t...

Turn = 5.
  0123456
0 r......
1 ..t....
2 .......
3 .....hf
4 ...t..h
5 .......
6 r..t.rr

Turn = 10.
  0123456
0 ....r..
1 ..t....
2 .......
3 r....hf
4 ...t..r
5 ......r
6 ...rr..

Turn = 15.
  0123456
0 r....r.
1 ..t....
2 .......
3 .....hf
4 ...t..r
5 ...t...
6 .r....r

Turn = 20.
  0123456
0 ..tt...
1 ..t....
2 .......
3 .....hf
4 ...t...
5 ...t..r
6 ..r.r..

*** Darwin 3x3 ***
Turn = 0.
  012
0 trt
1 rrt
2 .tt

Turn = 5.
  012
0 ttt
1 t.t
2 rtt

Turn = 10.
  012
0 ttt
1 t.t
2 ttt

Turn = 15.
  012
0 ttt
1 t.t
2 ttt

Turn = 20.
  012
0 ttt
1 t.t
2 ttt

*** Darwin 8x9 ***
Turn = 0.
  012345678
0 .........
1 .......r.
2 ....t...t
3 .fr.r.r..
4 ..r.....t
5 .........
6 .........
7 ......h..

Turn = 4.
  012345678
0 .........
1 ...r.....
2 ..r.t...t
3 ..r...h..
4 .r..r...t
5 .........
6 .........
7 ....r....

Turn = 8.
  012345678
0 ......h..
1 r........
2 r..r....t
3 ....r....
4 .......rr
5 .........
6 .........
7 .r.....r.

Turn = 12.
  012345678
0 ..rr..h..
1 .........
2 r.......t
3 ........t
4 .........
5 ........r
6 ....r....
7 .....r.r.

Turn = 16.
  012345678
0 ....r.h..
1 .........
2 ........t
3 ........t
4 ...r....t
5 ......r..
6 rr.......
7 ........r

Turn = 20.
  012345678
0 .....r..r
1 ......r..
2 .r......t
3 ........t
4 ........t
5 .........
6 .........
7 r..r....r

*** Darwin 5x5 ***
Turn = 0.
  01234
0 r...f
1 .r...
2 t.hr.
3 h....
4 tth..

Turn = 4.
  01234
0 r...f
1 .r...
2 t....
3 t.t..
4 ttrr.

Turn = 8.
  01234
0 ....f
1 ...rr
2 r.r..
3 t.t..
4 ttt..

Turn = 12.
  01234
0 ...rr
1 ..r.r
2 ....r
3 rt...
4 rtt..

Turn = 16.
  01234
0 rr...
1 rr..r
2 r....
3 .....
4 ttt.r

Turn = 20.
  01234
0 .r...
1 ....r
2 r....
3 rr...
4 rtttr

*** Darwin 7x7 ***
Turn = 0.
  0123456
0 .......
1 .......
2 ...rt.h
3 t...t..
4 ..r...r
5 .......
6 ..r..ft

Turn = 4.
  0123456
0 ....r..
1 .......
2 ....tt.
3 t...t..
4 .......
5 r.....r
6 ....rrr

Turn = 8.
  0123456
0 ......r
1 .......
2 ....tt.
3 r...t..
4 r.....r
5 ..r.r..
6 ......r

Turn = 12.
  0123456
0 ..r...r
1 .......
2 ....tt.
3 ...rt..
4 ...tt..
5 .......
6 r...r..

Turn = 16.
  0123456
0 r..r...
1 .......
2 ....tt.
3 ...tt..
4 ...tt..
5 ..r....
6 .r.....

Turn = 20.
  0123456
0 r......
1 ..r....
2 ....tt.
3 r..tt..
4 ...tt..
5 .......
6 .....r.

*** Darwin 8x8 ***
Turn = 0.
  01234567
0 ........
1 ......r.
2 .f.h....
3 .r.t..th
4 ........
5 .h...t..
6 ........
7 .......r

Turn = 4.
  01234567
0 ..r.r...
1 ........
2 ........
3 .rr.r.tt
4 ........
5 .....t..
6 ........
7 .h..r...

Turn = 8.
  01234567
0 ...r....
1 ......r.
2 ...rr...
3 .......t
4 .....t..
5 .....t..
6 .r......
7 .rr.....

Turn = 12.
  01234567
0 ...r.rr.
1 ........
2 ........
3 .......t
4 .....t..
5 .....t..
6 .r.r.r..
7 r.......

Turn = 16.
  01234567
0 r....r.r
1 ........
2 .r......
3 r......t
4 .....t..
5 .....t.r
6 ........
7 .r......

Turn = 20.
  01234567
0 r.......
1 r......r
2 r......r
3 ........
4 .....rrr
5 r....t..
6 ........
7 ........

*** Darwin 5x7 ***
Turn = 0.
  0123456
0 ....f..
1 ..fhf..
2 .r..t.r
3 t.....h
4 .f.....

Turn = 5.
  0123456
0 ....t..
1 ..ftt..
2 ....ttr
3 tt.....
4 r......

Turn = 10.
  0123456
0 ....rr.
1 ..ttt..
2 ....tt.
3 rt.....
4 r......

Turn = 15.
  0123456
0 ..r...r
1 ..ttt..
2 r....t.
3 .......
4 rr..r..

Turn = 20.
  0123456
0 ..r....
1 .r.tt..
2 r....tr
3 ......r
4 r.....r
