23

4 4
1
r 3 0 e
2 1

4 6
1
r 2 1 w
2 2

7 5
1
r 3 2 s
4 1

5 6
1
r 0 0 n
4 3

9 9
2
f 0 0 s
f 2 5 s
100 50

6 6
2
f 1 4 s
f 2 3 s
100 50

7 7
2
f 1 0 s
r 3 4 s
98 50

4 5
2
h 2 3 e
r 1 2 e
100 50

8 6
2
h 3 4 s
r 5 2 e
9 3

8 8
2
t 2 5 s
r 1 2 e
9 3

8 8
4
t 2 3 s
t 1 2 s
t 4 5 s
t 3 5 s
1 1

2 2
4
t 0 0 s
r 1 0 s
r 1 1 s
t 0 1 s
3 1

4 6
4
r 0 0 s
t 1 0 s
t 1 1 s
r 0 1 s
3 1

6 5
2
f 4 1 e
t 3 1 w
20 1

9 9
4
r 6 2 s
f 1 6 n
t 2 5 w
h 0 0 e
4 2

9 9
8
r 1 1 s
t 2 4 w
f 2 2 s
t 0 0 e
f 0 4 n
h 0 0 s
t 2 5 s
r 1 2 w
15 5

9 9
15
t 0 0 s
r 5 4 e
f 2 1 e
f 3 3 e
f 1 1 e
f 5 4 e
f 4 4 w
t 7 6 n
r 3 2 n
h 4 4 e
h 1 2 s
h 4 3 s
h 6 4 e
h 6 8 n
t 6 3 w
15 5

8 8
15
t 0 0 s
r 5 4 e
f 2 2 e
f 5 2 e
f 1 1 e
f 5 5 e
f 4 4 w
t 4 1 n
r 3 2 n
h 3 4 e
h 1 2 s
h 2 3 s
h 2 4 e
h 6 1 n
t 2 3 w
150 50

6 12
3
r 1 7 s
t 4 1 e
f 2 7 s
89 69

7 11
5
r 2 2 s
r 3 7 s
r 1 8 s
h 6 8 e
t 0 6 w
3 1

6 10
15
r 0 7 n
f 2 5 s
h 2 2 n
h 3 3 w
r 3 6 n
t 3 6 e
h 2 7 s
f 2 8 n
t 4 0 w
f 2 6 n
h 4 5 s
t 3 3 w
r 1 0 e
r 0 8 w
r 2 7 s
26 9

2 10
5
f 0 7 e
h 0 8 n
t 1 6 w
h 1 2 s
f 1 3 w
177 100

20 6
9
t 6 4 w
t 12 2 e
t 15 4 e
f 13 2 w
f 9 2 w
r 11 5 w
f 13 4 w
h 18 2 e
r 1 1 s
10 5
