*** Darwin 1x3 ***
Turn = 0.
  012
0 .f.

Turn = 3.
  012
0 .f.

Turn = 6.
  012
0 .f.

*** Darwin 6x7 ***
Turn = 0.
  0123456
0 .......
1 .r.....
2 .t.....
3 .......
4 ...h...
5 .......

Turn = 3.
  0123456
0 .......
1 .......
2 .......
3 .r.....
4 ......h
5 .r.....

Turn = 6.
  0123456
0 .......
1 .......
2 .......
3 .......
4 ..r...h
5 r......

Turn = 9.
  0123456
0 .......
1 .......
2 r......
3 .......
4 .....rh
5 .......

*** Darwin 4x8 ***
Turn = 0.
  01234567
0 .h.....r
1 ........
2 .......r
3 .....h..

*** Darwin 10x7 ***
Turn = 0.
  0123456
0 .......
1 t......
2 ...f...
3 .......
4 ...h...
5 .......
6 .......
7 r......
8 .......
9 ....h.h

Turn = 1.
  0123456
0 .......
1 t......
2 ...f...
3 .......
4 ....h..
5 .......
6 .......
7 .......
8 r......
9 .....hh

Turn = 2.
  0123456
0 .......
1 t......
2 ...f...
3 .......
4 .....h.
5 .......
6 .......
7 .......
8 .......
9 r....hh

Turn = 3.
  0123456
0 .......
1 t......
2 ...f...
3 .......
4 ......h
5 .......
6 .......
7 .......
8 .......
9 r....hh

*** Darwin 9x9 ***
Turn = 0.
  012345678
0 r....f...
1 .........
2 h..r..f..
3 .......rh
4 .........
5 .....t...
6 ..r......
7 .........
8 ....t....

Turn = 5.
  012345678
0 r....f..r
1 r........
2 ......f..
3 .........
4 .........
5 r....t...
6 ......rr.
7 .........
8 ....t....

Turn = 10.
  012345678
0 ....r....
1 ....rrr..
2 .....rr..
3 .........
4 .........
5 .....t...
6 .........
7 .........
8 r...t...r

*** Darwin 2x2 ***
Turn = 0.
  01
0 rf
1 hh

Turn = 1.
  01
0 rf
1 hh

Turn = 2.
  01
0 rr
1 hh

Turn = 3.
  01
0 rr
1 hh

Turn = 4.
  01
0 rr
1 rr

*** Darwin 9x2 ***
Turn = 0.
  01
0 ..
1 .h
2 .r
3 t.
4 hf
5 ..
6 r.
7 ..
8 ..

Turn = 5.
  01
0 rh
1 ..
2 ..
3 t.
4 tt
5 ..
6 ..
7 ..
8 .r

*** Darwin 1x6 ***
Turn = 0.
  012345
0 f.f.rr

Turn = 3.
  012345
0 f.fr.r

*** Darwin 1x9 ***
Turn = 0.
  012345678
0 .t.rt.rr.

*** Darwin 2x3 ***
Turn = 0.
  012
0 ht.
1 tth

Turn = 1.
  012
0 tth
1 tt.

Turn = 2.
  012
0 tth
1 tt.

Turn = 3.
  012
0 tth
1 tt.

Turn = 4.
  012
0 ttt
1 tt.

Turn = 5.
  012
0 ttt
1 tt.

Turn = 6.
  012
0 ttt
1 tt.

Turn = 7.
  012
0 ttt
1 tt.

Turn = 8.
  012
0 ttt
1 tt.

Turn = 9.
  012
0 ttt
1 tt.

*** Darwin 10x1 ***
Turn = 0.
  0
0 f
1 h
2 .
3 h
4 .
5 r
6 .
7 .
8 .
9 .

Turn = 5.
  0
0 f
1 .
2 r
3 r
4 r
5 .
6 .
7 .
8 .
9 .

*** Darwin 9x6 ***
Turn = 0.
  012345
0 ......
1 ......
2 ......
3 ......
4 ......
5 ......
6 .....r
7 .....h
8 ......

*** Darwin 10x3 ***
Turn = 0.
  012
0 ..f
1 t..
2 ...
3 ...
4 ...
5 .h.
6 ..h
7 ...
8 ...
9 rr.

Turn = 5.
  012
0 .hf
1 t.h
2 ...
3 ...
4 ...
5 r..
6 ...
7 ...
8 r..
9 ...

*** Darwin 4x2 ***
Turn = 0.
  01
0 .h
1 tt
2 h.
3 h.

Turn = 1.
  01
0 .h
1 tt
2 h.
3 h.

Turn = 2.
  01
0 .t
1 tt
2 t.
3 h.

Turn = 3.
  01
0 .t
1 tt
2 t.
3 h.

Turn = 4.
  01
0 .t
1 tt
2 t.
3 t.

Turn = 5.
  01
0 .t
1 tt
2 t.
3 t.

Turn = 6.
  01
0 .t
1 tt
2 t.
3 t.

Turn = 7.
  01
0 .t
1 tt
2 t.
3 t.

Turn = 8.
  01
0 .t
1 tt
2 t.
3 t.

Turn = 9.
  01
0 .t
1 tt
2 t.
3 t.

*** Darwin 2x8 ***
Turn = 0.
  01234567
0 rr.h..hh
1 .t......

Turn = 1.
  01234567
0 rrh..hh.
1 .t......

Turn = 2.
  01234567
0 rrh.hh..
1 .r......

Turn = 3.
  01234567
0 rrhhh...
1 r.......

Turn = 4.
  01234567
0 rrhhh...
1 r.......

Turn = 5.
  01234567
0 rhhh....
1 rr......

*** Darwin 3x1 ***
Turn = 0.
  0
0 f
1 .
2 t

Turn = 2.
  0
0 f
1 .
2 t

Turn = 4.
  0
0 f
1 .
2 t

*** Darwin 5x1 ***
Turn = 0.
  0
0 t
1 f
2 r
3 h
4 f

Turn = 1.
  0
0 t
1 t
2 r
3 r
4 f

Turn = 2.
  0
0 t
1 t
2 r
3 r
4 r

Turn = 3.
  0
0 t
1 t
2 t
3 r
4 r

Turn = 4.
  0
0 t
1 t
2 t
3 r
4 r

*** Darwin 2x5 ***
Turn = 0.
  01234
0 ...r.
1 ..rf.

Turn = 5.
  01234
0 .....
1 r..rr

*** Darwin 1x1 ***
Turn = 0.
  0
0 r

Turn = 3.
  0
0 r

Turn = 6.
  0
0 r

*** Darwin 7x4 ***
Turn = 0.
  0123
0 ....
1 ....
2 ...t
3 ...f
4 ....
5 h...
6 ....

Turn = 1.
  0123
0 ....
1 ....
2 ...t
3 ...f
4 ....
5 ....
6 h...

*** Darwin 3x2 ***
Turn = 0.
  01
0 ht
1 .r
2 .f

Turn = 1.
  01
0 .r
1 hr
2 .f

Turn = 2.
  01
0 rr
1 ..
2 hf

Turn = 3.
  01
0 rr
1 ..
2 hf

Turn = 4.
  01
0 rr
1 ..
2 hf

Turn = 5.
  01
0 rr
1 ..
2 hf

Turn = 6.
  01
0 .r
1 r.
2 hf

Turn = 7.
  01
0 .r
1 r.
2 rf

*** Darwin 9x7 ***
Turn = 0.
  0123456
0 ......r
1 .......
2 .......
3 .......
4 .......
5 .......
6 .......
7 .......
8 .......

Turn = 4.
  0123456
0 .......
1 .......
2 .......
3 .......
4 ......r
5 .......
6 .......
7 .......
8 .......
